…
``` r
aidworker_df %>% 
  pivot_longer(
    un:other,
    names_to = "org_type", 
    values_to = "number_orgs_affected"
  ) %>% 
  select(-number_orgs_affected)
```

    ## # A tibble: 17,982 x 34
    ##    incident_id  year month   day country region district city  nationals_killed
    ##          <dbl> <dbl> <dbl> <dbl> <chr>   <chr>  <chr>    <chr>            <dbl>
    ##  1          35  1997    NA    NA <NA>    <NA>   <NA>     <NA>                 1
    ##  2          35  1997    NA    NA <NA>    <NA>   <NA>     <NA>                 1
    ##  3          35  1997    NA    NA <NA>    <NA>   <NA>     <NA>                 1
    ##  4          35  1997    NA    NA <NA>    <NA>   <NA>     <NA>                 1
    ##  5          35  1997    NA    NA <NA>    <NA>   <NA>     <NA>                 1
    ##  6          35  1997    NA    NA <NA>    <NA>   <NA>     <NA>                 1
    ##  7           1  1997     1    NA Cambod… Bante… <NA>     <NA>                 1
    ##  8           1  1997     1    NA Cambod… Bante… <NA>     <NA>                 1
    ##  9           1  1997     1    NA Cambod… Bante… <NA>     <NA>                 1
    ## 10           1  1997     1    NA Cambod… Bante… <NA>     <NA>                 1
    ## # … with 17,972 more rows, and 25 more variables: nationals_wounded <dbl>,
    ## #   nationals_kidnapped <dbl>, total_nationals <dbl>,
    ## #   internationals_killed <dbl>, internationals_wounded <dbl>,
    ## #   internationals_kidnapped <dbl>, total_internationals <dbl>,
    ## #   total_killed <dbl>, total_wounded <dbl>, total_kidnapped <dbl>,
    ## #   total_affected <dbl>, gender_male <dbl>, gender_female <dbl>,
    ## #   gender_unknown <dbl>, means_of_attack <chr>, attack_context <chr>,
    ## #   location <chr>, latitude <dbl>, longitude <dbl>, actor_type <chr>,
    ## #   actor_name <chr>, details <chr>, verified <chr>, source <chr>,
    ## #   org_type <chr>

``` r
aidworker_df
```

    ## # A tibble: 2,997 x 39
    ##    incident_id  year month   day country region district city     un  ingo
    ##          <dbl> <dbl> <dbl> <dbl> <chr>   <chr>  <chr>    <chr> <dbl> <dbl>
    ##  1          35  1997    NA    NA <NA>    <NA>   <NA>     <NA>      0     0
    ##  2           1  1997     1    NA Cambod… Bante… <NA>     <NA>      0     0
    ##  3           2  1997     1    NA Rwanda  North… Musanze  Ruhe…     0     4
    ##  4           3  1997     2    NA Tajiki… <NA>   <NA>     <NA>      4     0
    ##  5           4  1997     2    NA Somalia Lower… Kismayo  Kism…     0     1
    ##  6           5  1997     2    14 Rwanda  Kigali Kigali   Kiga…     1     0
    ##  7           7  1997     5    NA DR Con… <NA>   <NA>     <NA>      0     0
    ##  8           6  1997     5     7 Sierra… <NA>   <NA>     <NA>      3     0
    ##  9          11  1997     6    NA Somalia Gedo   Baardhe… Tulo…     1     0
    ## 10          12  1997     6     8 Rwanda  North… Musanze  Ruhe…     0     1
    ## # … with 2,987 more rows, and 29 more variables: lngo_nrcs <dbl>, icrc <dbl>,
    ## #   ifrc <dbl>, other <dbl>, nationals_killed <dbl>, nationals_wounded <dbl>,
    ## #   nationals_kidnapped <dbl>, total_nationals <dbl>,
    ## #   internationals_killed <dbl>, internationals_wounded <dbl>,
    ## #   internationals_kidnapped <dbl>, total_internationals <dbl>,
    ## #   total_killed <dbl>, total_wounded <dbl>, total_kidnapped <dbl>,
    ## #   total_affected <dbl>, gender_male <dbl>, gender_female <dbl>,
    ## #   gender_unknown <dbl>, means_of_attack <chr>, attack_context <chr>,
    ## #   location <chr>, latitude <dbl>, longitude <dbl>, actor_type <chr>,
…
``` r
ucdp_onsided_df %>% 
  filter(location == "Afghanistan") %>% 
  select(year, actor_name, best_fatality_estimate, low_fatality_estimate, high_fatality_estimate, is_government_actor) %>% 
  arrange(year)
```

    ## # A tibble: 23 x 6
    ##     year actor_name best_fatality_e… low_fatality_es… high_fatality_e…
    ##    <dbl> <chr>                 <dbl>            <dbl>            <dbl>
    ##  1  1993 Governmen…               26               26              240
    ##  2  1996 Taleban                  42               12               42
    ##  3  1997 Governmen…              323              323              323
    ##  4  1998 Governmen…             5801             3731             7381
    ##  5  1999 Governmen…              436              436              912
    ##  6  2000 Governmen…              152              152              152
    ##  7  2001 Governmen…              298              298             1077
    ##  8  2001 UIFSA                   200              200             1000
    ##  9  2004 Taleban                  53               51               69
    ## 10  2006 Taleban                 196              194              253
    ## # … with 13 more rows, and 1 more variable: is_government_actor <dbl>
…
