…
aidworker_df = 
distinct(aidworker_df) 

aidworker_df %>% 
  janitor::clean_names() %>% 
  ## need to rethink the strategy for this - a simple pivot longer doesn't work here, creates 6 duplicates for each observation because it doesn't recognize 0s 
  pivot_longer(un:other,
    names_to = "org_type", 
    values_to = "number_orgs_affected") %>% 
  select(-number_orgs_affected) %>%
  rename(year = year_sort_descending, -source, -verified)
```

    ## # A tibble: 18,018 x 28
    ##       id month   day  year country nationals_killed nationals_wound…
    ##    <int> <chr> <int> <int> <chr>              <int>            <int>
    ##  1    35 ""       NA  1997 ""                     1                0
    ##  2    35 ""       NA  1997 ""                     1                0
    ##  3    35 ""       NA  1997 ""                     1                0
    ##  4    35 ""       NA  1997 ""                     1                0
    ##  5    35 ""       NA  1997 ""                     1                0
    ##  6    35 ""       NA  1997 ""                     1                0
    ##  7     1 "Jan"    NA  1997 "Cambo…                1                0
    ##  8     1 "Jan"    NA  1997 "Cambo…                1                0
    ##  9     1 "Jan"    NA  1997 "Cambo…                1                0
    ## 10     1 "Jan"    NA  1997 "Cambo…                1                0
    ## # … with 18,008 more rows, and 21 more variables: nationals_kidnapped <int>,
    ## #   total_national_staff <int>, internationals_killed <int>,
    ## #   internationals_wounded <int>, internationals_kidnapped <int>,
    ## #   total_international_staff <int>, total_victims <int>, gender_male <int>,
    ## #   gender_female <int>, gender_unknown <int>, means_of_attack <chr>,
    ## #   attack_context <chr>, location <chr>, latitude <chr>, longitude <chr>,
    ## #   actor_type <chr>, actor_name <chr>, details <chr>, verified <chr>,
    ## #   source <chr>, org_type <chr>
